\relax 
\@writefile{toc}{\contentsline {section}{\numberline {1}Introduction}{1}\protected@file@percent }
\@writefile{toc}{\contentsline {section}{\numberline {2}Format of Windows Apps}{1}\protected@file@percent }
\@writefile{toc}{\contentsline {subsection}{\numberline {2.1}XAML}{1}\protected@file@percent }
\@writefile{toc}{\contentsline {subsection}{\numberline {2.2}XBF}{1}\protected@file@percent }
\@writefile{toc}{\contentsline {section}{\numberline {3}Microsoft Store}{2}\protected@file@percent }
\@writefile{toc}{\contentsline {subsection}{\numberline {3.1}Packet Analysis}{2}\protected@file@percent }
\@writefile{toc}{\contentsline {subsubsection}{\numberline {3.1.1}apps.microsoft.com}{2}\protected@file@percent }
\@writefile{toc}{\contentsline {subsubsection}{\numberline {3.1.2}wscont.apps.microsoft.com}{3}\protected@file@percent }
\@writefile{toc}{\contentsline {subsubsection}{\numberline {3.1.3}next-services.apps.microsoft.com}{3}\protected@file@percent }
\@writefile{toc}{\contentsline {subsection}{\numberline {3.2}Disecting the URLs of next-services.apps.microsoft.com}{3}\protected@file@percent }
\@writefile{toc}{\contentsline {subsubsection}{\numberline {3.2.1}General Semantics}{3}\protected@file@percent }
\@writefile{toc}{\contentsline {subsection}{\numberline {3.3}/browse/..../Apps/<uuid>}{3}\protected@file@percent }
\@writefile{toc}{\contentsline {subsection}{\numberline {3.4}/Licensing/UserPortal/GetApplicationList/}{3}\protected@file@percent }
\@writefile{toc}{\contentsline {section}{\numberline {4}Decompiling}{4}\protected@file@percent }
\@writefile{toc}{\contentsline {section}{\numberline {5}Mini DuMps}{4}\protected@file@percent }
